{
    "joints": {
        "components": [
            {
                "components": [
                    {
                        "id": "Foot",
                        "in": [
                            1.0633938697076613,
                            1.277396674584323
                        ],
                        "out": [
                            [
                                1.0633938697076613,
                                1.277396674584323
                            ],
                            "ANY"
                        ],
                        "texture": ""
                    }
                ],
                "id": "Lower Leg",
                "in": [
                    0.9649815713205645,
                    1.267895486935867
                ],
                "out": [
                    [
                        0.9649815713205645,
                        1.267895486935867
                    ],
                    "ANY"
                ],
                "texture": ""
            }
        ],
        "id": "Upper Leg",
        "in": [
            0.2853964528729839,
            1.267895486935867
        ],
        "out": [
            [
                0.8306963520665323,
                1.267895486935867
            ],
            "ANY"
        ],
        "texture": ""
    },
    "textures": [
        {
            "component": "Upper Leg",
            "id": 32
        }
    ]
}