{
    "joints": [
        {
            "component": "Torso",
            "joint": {
                "child": "Torso",
                "parent": "IN"
            },
            "percentages": {
                "x": 0.2692674206149194,
                "y": 1.2583942992874109
            }
        },
        {
            "component": "Torso",
            "joint": {
                "child": "Neck",
                "parent": "Torso"
            },
            "percentages": {
                "x": 0.6421725365423387,
                "y": 1.2583942992874109
            }
        },
        {
            "component": "Torso",
            "joint": {
                "child": "Left Arm",
                "parent": "Torso"
            },
            "percentages": {
                "x": 1.1921189831149193,
                "y": 1.2583942992874109
            }
        },
        {
            "component": "Torso",
            "joint": {
                "child": "Right Arm",
                "parent": "Torso"
            },
            "percentages": {
                "x": 1.698454826108871,
                "y": 1.2583942992874109
            }
        }
    ],
    "textures": [
        {
            "component": "Torso",
            "id": 28
        }
    ]
}