[
    {
        "component": "Upper Leg",
        "joint": {
            "child": "Upper Leg",
            "parent": "IN"
        },
        "percentages": {
            "x": 0.5062767767137096,
            "y": 0.9372161520190023
        }
    },
    {
        "component": "Upper Leg",
        "joint": {
            "child": "Lower Leg",
            "parent": "Upper Leg"
        },
        "percentages": {
            "x": 0.4517152847782258,
            "y": 0.0821092636579572
        }
    },
    {
        "component": "Lower Leg",
        "joint": {
            "child": "Lower Leg",
            "parent": "Upper Leg"
        },
        "percentages": {
            "x": 0.8587481831395349,
            "y": 0.016899408284023636
        }
    },
    {
        "component": "Lower Leg",
        "joint": {
            "child": "Foot",
            "parent": "Lower Leg"
        },
        "percentages": {
            "x": 0.8587481831395349,
            "y": 0.016899408284023636
        }
    },
    {
        "component": "Foot",
        "joint": {
            "child": "Foot",
            "parent": "Lower Leg"
        },
        "percentages": {
            "x": 0.5102662158613446,
            "y": 0.08788811188811177
        }
    },
    {
        "component": "Foot",
        "joint": {
            "child": "OUT",
            "parent": "Foot"
        },
        "percentages": {
            "x": 0.5102662158613446,
            "y": 0.08788811188811177
        }
    }
]