{
    "joints": {
        "id": "Neck",
        "in": [
            0.015235162550403226,
            1.267895486935867
        ],
        "out": [
            [
                0.38814027847782256,
                1.267895486935867
            ],
            "ANY",
            [
                0.9380867250504032,
                1.267895486935867
            ],
            "ANY",
            [
                1.4444225680443548,
                1.267895486935867
            ],
            "ANY"
        ],
        "texture": 71
    },
    "textures": [
        {
            "component": "Torso",
            "id": 71
        }
    ]
}