{
    "joints": [
        {
            "component": "Torso",
            "joint": {
                "child": "Torso",
                "parent": "IN"
            },
            "percentages": {
                "x": -0.3637970955141129,
                "y": 1.111125890736342
            }
        },
        {
            "component": "Torso",
            "joint": {
                "child": "Neck",
                "parent": "Torso"
            },
            "percentages": {
                "x": -0.18444036668346775,
                "y": 1.260769596199525
            }
        },
        {
            "component": "Torso",
            "joint": {
                "child": "Left Arm",
                "parent": "Torso"
            },
            "percentages": {
                "x": 0.3655060798891129,
                "y": 1.260769596199525
            }
        },
        {
            "component": "Torso",
            "joint": {
                "child": "Right Arm",
                "parent": "Torso"
            },
            "percentages": {
                "x": 0.8718419228830645,
                "y": 1.260769596199525
            }
        }
    ],
    "textures": []
}